<svg width="21" height="11" viewBox="0 0 21 11" fill="none" xmlns="http://www.w3.org/2000/svg">
<g filter="url(#filter0_d_83_3692)">
<path d="M-0.000422348 9.35784L9.35742 -1.1874e-06L19.25 9.89258C11.3332 6.72992 7.08141 6.55967 -0.000422348 9.35784Z" fill="white"/>
</g>
<defs>
<filter id="filter0_d_83_3692" x="0" y="0" width="20.25" height="10.8926" filterUnits="userSpaceOnUse" color-interpolation-filters="sRGB">
<feFlood flood-opacity="0" result="BackgroundImageFix"/>
<feColorMatrix in="SourceAlpha" type="matrix" values="0 0 0 0 0 0 0 0 0 0 0 0 0 0 0 0 0 0 127 0" result="hardAlpha"/>
<feOffset dx="1" dy="1"/>
<feComposite in2="hardAlpha" operator="out"/>
<feColorMatrix type="matrix" values="0 0 0 0 0.0941176 0 0 0 0 0.0705882 0 0 0 0 0.054902 0 0 0 1 0"/>
<feBlend mode="normal" in2="BackgroundImageFix" result="effect1_dropShadow_83_3692"/>
<feBlend mode="normal" in="SourceGraphic" in2="effect1_dropShadow_83_3692" result="shape"/>
</filter>
</defs>
</svg>
