<svg width="341" height="43" viewBox="0 0 341 43" fill="none" xmlns="http://www.w3.org/2000/svg">
<path d="M101.974 21.5H79.9471H21.0216V40L3 21.5H21.0216H79.9471H101.974H124H319.478V3L338 21.5H319.478H124H101.974Z" fill="url(#paint0_linear_1111_7930)"/>
<path d="M319.478 21.5H124H101.974H79.9471H21.0216M319.478 21.5H338L319.478 3V21.5ZM21.0216 21.5H3L21.0216 40V21.5Z" stroke="url(#paint1_linear_1111_7930)" stroke-width="2"/>
<defs>
<linearGradient id="paint0_linear_1111_7930" x1="884" y1="26.9979" x2="9.00007" y2="21.4977" gradientUnits="userSpaceOnUse">
<stop offset="0.0188927" stop-color="#C2AC80"/>
<stop offset="0.973465" stop-color="#5C4B2A"/>
</linearGradient>
<linearGradient id="paint1_linear_1111_7930" x1="8.00602" y1="21.5001" x2="1253.5" y2="21.5007" gradientUnits="userSpaceOnUse">
<stop offset="0.210572" stop-color="#5B4A2A"/>
<stop offset="0.33847" stop-color="#CCBB90"/>
<stop offset="0.42678" stop-color="#534023"/>
<stop offset="0.490729" stop-color="#AD9562"/>
<stop offset="0.544672" stop-color="#5E4B2F"/>
<stop offset="0.650818" stop-color="#D3BC8E"/>
<stop offset="1" stop-color="#5C4B2C"/>
</linearGradient>
</defs>
</svg>
